V.Saint-Priest:A,35>V.Caluire-et-cuire;A,22>V.Lyon|
V.Caluire-et-cuire:A,35>V.Saint-Priest;N,7>V.La Mulatière;D,7>V.Villeurbanne;D,7>L.La Part Dieu-Lyon|
L.L'Appart Fitness-Lyon:D,4>V.Lyon;N,2>V.Lyon|
L.King Aventure-Dardilly:A,15>V.La Mulatière;N,20>V.La Mulatière|
V.La Mulatière:A,15>L.King Aventure-Dardilly;N,20>L.King Aventure-Dardilly;N,7>V.Caluire-et-cuire;A,32>V.Villefranche-sur-Saone;N,35>V.Villefranche-sur-Saone|
V.Lyon:D,4>L.L'Appart Fitness-Lyon;N,2>L.L'Appart Fitness-Lyon;A,22>V.Saint-Priest;D,14>V.Bron;N,14>V.Decines-charpieu;N,20>V.Mezieux;A,35>L.Château de Fallavier-Quentin de Fallavier;N,37>L.Château de Fallavier-Quentin de Fallavier;A,400>V.Narbonne|
V.Bron:D,14>V.Lyon|
L.La Part Dieu-Lyon:D,7>V.Caluire-et-cuire|
R.The W-Villeurbanne:D,2>V.Villeurbanne|
V.Villeurbanne:D,2>R.The W-Villeurbanne;D,7>V.Caluire-et-cuire;A,7>V.Vaulx-en-velin;A,47>V.Villefranche-sur-Saone|
L.Château de Fallavier-Quentin de Fallavier:N,37>V.Lyon;A,35>V.Lyon|
V.Decines-charpieu:N,14>V.Lyon|
V.Vaulx-en-velin:A,7>V.Villeurbanne;A,22>L.Tennis club de Marcy l'etoile|
L.Tennis club de Marcy l'etoile:A,22>V.Vaulx-en-velin|
